{
    "KPlugin": {
        "Authors": [
            {
                "Name": "Julius Zint",
                "Name[ar]": "جوليس زنت",
                "Name[az]": "Julius Zint",
                "Name[bg]": "Julius Zint",
                "Name[ca@valencia]": "Julius Zint",
                "Name[ca]": "Julius Zint",
                "Name[cs]": "Julius Zint",
                "Name[de]": "Julius Zint",
                "Name[en_GB]": "Julius Zint",
                "Name[eo]": "Julio Zint",
                "Name[es]": "Julius Zint",
                "Name[eu]": "Julius Zint",
                "Name[fi]": "Julius Zint",
                "Name[fr]": "Julius Zint",
                "Name[he]": "יוליוס זינט",
                "Name[hi]": "जूलियस जिंट",
                "Name[ia]": "Julius Zint",
                "Name[is]": "Julius Zint",
                "Name[it]": "Julius Zint",
                "Name[ja]": "Julius Zint",
                "Name[ka]": "Julius Zint",
                "Name[ko]": "Julius Zint",
                "Name[nl]": "Julius Zint",
                "Name[nn]": "Julius Zint",
                "Name[pl]": "Julius Zint",
                "Name[ru]": "Julius Zint",
                "Name[sa]": "जूलियस् जिन्ट्",
                "Name[sk]": "Julius Zint",
                "Name[sl]": "Julius Zint",
                "Name[ta]": "ஜூலியசு ஃஜிண்ட்",
                "Name[tr]": "Julius Zint",
                "Name[uk]": "Julius Zint",
                "Name[x-test]": "xxJulius Zintxx",
                "Name[zh_CN]": "Julius Zint",
                "Name[zh_TW]": "Julius Zint"
            }
        ],
        "Category": "Utilities",
        "Description": "Set image as (lockscreen) wallpaper",
        "Description[ar]": "عيّن الصورة كخلفية (شاشة القفل)",
        "Description[az]": "Şəkili kilid ekranı divar kağızı kimi təyin et",
        "Description[bg]": "Задаване на изображението като тапет (на екрана за заключване)",
        "Description[ca@valencia]": "Establix la imatge com a fons de pantalla (pantalla de bloqueig)",
        "Description[ca]": "Estableix la imatge com a fons de pantalla (pantalla de bloqueig)",
        "Description[cs]": "Nastavit obrázek jako tapetu (zamčené obrazovky)",
        "Description[de]": "Bild als (Sperrbildschirm-) Hintergrundbild festlegen",
        "Description[en_GB]": "Set image as (lockscreen) wallpaper",
        "Description[eo]": "Agordi bildon kiel (ŝlosilekranan) tapeton",
        "Description[es]": "Definir imagen como fondo de escritorio (pantalla de bloqueo)",
        "Description[eu]": "Ezarri irudia (giltzatzeko pantailako) horma-paper gisa",
        "Description[fi]": "Aseta kuva (lukitusnäytön) taustakuvaksi",
        "Description[fr]": "Définir une image comme un fonds d'écran (Écran de verrouillage)",
        "Description[he]": "הגדרת תמונה כתמונת רקע (של מסך נעילה)",
        "Description[hi]": "छवि को (लॉकस्क्रीन) वॉलपेपर के रूप में सेट करें",
        "Description[ia]": "Pone imagine comoo tapete de papiro (lockscreen-bloca schermo)",
        "Description[is]": "Velja með sem veggfóður (læsiskjár)",
        "Description[it]": "Imposta l'immagine come sfondo (schermata di blocco).",
        "Description[ja]": "画像をロック画面の壁紙として設定",
        "Description[ka]": "გამოსახულების ჩაკეტილი ეკრანის ფონად დაყენება",
        "Description[ko]": "그림을 (잠금 화면) 배경 그림으로 설정",
        "Description[nl]": "Afbeelding instellen als (vergrendelscherm) achtergrondafbeelding",
        "Description[nn]": "Bruk som bakgrunns­bilete (på låseskjerm)",
        "Description[pl]": "Ustaw obraz jako tapetę ekranu blokady",
        "Description[ru]": "Использование изображения в качестве фона экрана блокировки",
        "Description[sa]": "चित्रं (lockscreen) दीपचित्ररूपेण निरूपय कुर्वन्तु",
        "Description[sk]": "Nastavenie obrázka ako tapety (uzamknutej obrazovky)",
        "Description[sl]": "Nastavi sliko kot ozadje zaklepa zaslona",
        "Description[ta]": "படத்தை பூட்டுதிரை பின்புலப்படமாக அமை",
        "Description[tr]": "Görseli, kilit ekranı duvar kağıdı olarak ayarlayın",
        "Description[uk]": "Встановити зображення як фонове (для вікна блокування)",
        "Description[x-test]": "xxSet image as (lockscreen) wallpaperxx",
        "Description[zh_CN]": "设置图像为 (锁屏) 壁纸",
        "Description[zh_TW]": "設定影像為（鎖定螢幕）桌布",
        "License": "GPL",
        "MimeTypes": [
            "image/avif",
            "image/gif",
            "image/heif",
            "image/jpeg",
            "image/png",
            "image/svg+xml",
            "image/svg+xml-compressed",
            "image/bmp",
            "image/webp",
            "image/tiff"
        ],
        "Name": "Set as",
        "Name[ar]": "عيّن كـ",
        "Name[az]": "Belə təyin et:",
        "Name[bg]": "Задаване като",
        "Name[ca@valencia]": "Establix com a",
        "Name[ca]": "Estableix com a",
        "Name[cs]": "Nastavit jako",
        "Name[de]": "Festlegen als",
        "Name[en_GB]": "Set as",
        "Name[eo]": "Agordi kiel",
        "Name[es]": "Definir como",
        "Name[eu]": "Ezarri honela",
        "Name[fi]": "Aseta",
        "Name[fr]": "Définir comme",
        "Name[he]": "הגדרה בתור",
        "Name[hi]": "एसे नियत करें",
        "Name[ia]": "Pone como",
        "Name[is]": "Velja sem",
        "Name[it]": "Imposta come",
        "Name[ja]": "壁紙として設定",
        "Name[ka]": "დაყენება, როგორც",
        "Name[ko]": "다음으로 설정",
        "Name[nl]": "Instellen als",
        "Name[nn]": "Vel som",
        "Name[pa]": "ਇੰਝ ਸੈੱਟ ਕਰੋ",
        "Name[pl]": "Ustaw jako",
        "Name[ru]": "Использовать изображение",
        "Name[sa]": "यथा निरूपयतु",
        "Name[sk]": "Nastaviť ako",
        "Name[sl]": "Nastavi kot",
        "Name[ta]": "இதுவாக அமை",
        "Name[tr]": "Ayarla",
        "Name[uk]": "Встановити як",
        "Name[x-test]": "xxSet asxx",
        "Name[zh_CN]": "设为",
        "Name[zh_TW]": "設為"
    }
}
